,data
0,59177791
1,69531288
2,22311770
3,87129466
4,19136079
5,15116645
6,64865429
7,79643589
8,63652904
9,44660545
10,62780693
11,80608224
12,87861360
13,33441810
14,67831401
15,96175731
16,43160091
17,75897338
18,13530593
19,85750265
20,30803336
21,1289682
22,22758087
23,48464341
24,43116588
25,51204038
26,40424796
27,12848584
28,5433931
29,4772522
30,33687781
31,61551554
32,9528812
33,97220978
34,64149302
35,13611746
36,78433197
37,32377986
38,37637295
39,30055060
40,45717697
41,99207013
42,42819993
43,19821613
44,37139123
45,86800719
46,84518906
47,33971461
48,47891096
49,17497024
50,84614588
51,22465994
52,98589537
53,13017511
54,36182349
55,81560883
56,61243388
57,49022621
58,49471652
59,72024777
60,26137268
61,41540105
62,93986864
63,75780941
64,37495199
65,69762004
66,20018219
67,50584976
68,34713381
69,13929915
70,41644990
71,35454164
72,50231853
73,50711299
74,41276967
75,23252894
76,46705107
77,29546760
78,4235706
79,64106202
80,61629775
81,95339573
82,2543563
83,94097721
84,6767543
85,6535482
86,71650844
87,5900517
88,72115486
89,28067052
90,88759472
91,22196225
92,98692080
93,95156982
94,56771713
95,36485538
96,66232991
97,96765898
98,9493623
99,34094869
100,13826146
101,54545775
102,97709465
103,9792309
104,80671269
105,22197384
106,79348317
107,78300096
108,9797687
109,18454476
110,18335844
111,47069161
112,99560115
113,34766945
114,36118214
115,78836248
116,42783265
117,91262632
118,57862381
119,29060529
120,725551
121,59609378
122,33957585
123,33925547
124,55536303
125,5587665
126,22857670
127,92259288
128,96816800
129,23547703
130,4110179
131,89591144
132,58037918
133,66654000
134,35846533
135,4523577
136,71983489
137,43413712
138,25548311
139,2842887
140,66652517
141,490538
142,26822093
143,85035896
144,49428707
145,60655554
146,59401342
147,21481280
148,44459179
149,80531180
150,33366456
151,96073413
152,88069732
153,45623127
154,67731568
155,54374833
156,26020345
157,69302797
158,7192656
159,98034201
160,23085633
161,34889842
162,21789241
163,91216219
164,72330355
165,75567328
166,16692030
167,25569853
168,26962554
169,99028901
170,59339755
171,14079695
172,13613575
173,35270934
174,61949820
175,31190062
176,17215340
177,20170892
178,4479578
179,3124803
180,89156653
181,74987961
182,73612102
183,75149565
184,40562864
185,88440758
186,23220618
187,98794371
188,41350021
189,46201815
190,72785649
191,33264231
192,68774453
193,3919050
194,5738851
195,70226856
196,26113700
197,21371056
198,80126888
199,14210120
200,96836074
201,89040333
202,89742919
203,93549826
204,57214158
205,74791663
206,88480748
207,57212785
208,47335530
209,28296712
210,67123512
211,70586823
212,43754170
213,62065045
214,87949452
215,4204580
216,16880622
217,29639602
218,76816136
219,81022483
220,57104158
221,33860774
222,19432644
223,97976915
224,13384534
225,27422855
226,32617144
227,31989427
228,8677178
229,54360517
230,96787512
231,46693582
232,94457237
233,81363765
234,59283876
235,93530408
236,38924073
237,43950056
238,47365184
239,91383957
240,12360654
241,17835021
242,67770802
243,86772825
244,2572277
245,26475377
246,60735031
247,76638944
248,61180340
249,36515039
250,51572943
251,70169595
252,13771807
253,64378214
254,83850986
255,83138406
